{
  "availableEntryByParentKey": [{
    "mainMenu": "DETTES",
    "availableMenuId" : ["test-recouvrement"]
  }],

  "microFrontendMenuElement": [{
    "tooltip": "test-recouvrement",
    "label": "test-recouvrement",
    "routerUrl": "recouvrement",
    "id": "test-recouvrement"
  }]
}
